#%D: todo:done: +1
#%D: s:dobry_dzień: =1
#%D: s:zły_dzień: =1
#%D: s:chory: =1
#%D: h:książka: =1
#%D: h:film: =1
#%D: h:cos_konstruktywnego: =1
#%D: h:programowanie: =1
#%D: h:kawa: =2
#%D: h:alkohol: =1
#%D: h:słodycze: =1
#%D: h:zakupy:dom: =1
#%D: h:zakupy:moje: =1
#%D: h:sprzątanie: =1
#%D: h:kwiatki: =1
#%D: h:jazda samochodem: =1
#%D: h:rower: +1
#%D: h:spotkania: =1
#%D: h:sen: =3
#%D: w:praca: +8
#%D: w:praca dodatkowa: +1
